{
  "kind": "singleType",
  "collectionName": "homes",
  "info": {
    "singularName": "home",
    "pluralName": "homes",
    "displayName": "Home",
    "description": ""
  },
  "options": {
    "draftAndPublish": true
  },
  "pluginOptions": {},
  "attributes": {
    "Teaser": {
      "type": "component",
      "repeatable": false,
      "component": "media.text-image"
    },
    "Mediaboxes": {
      "type": "component",
      "repeatable": true,
      "component": "media.card-horizontal"
    },
    "LandscapeMediabox": {
      "type": "component",
      "repeatable": true,
      "component": "media.card-horizontal"
    },
    "TextBottom": {
      "type": "component",
      "repeatable": false,
      "component": "media.text-centered"
    },
    "TextTop": {
      "type": "component",
      "repeatable": false,
      "component": "media.text-centered"
    },
    "ContentElement": {
      "type": "dynamiczone",
      "components": [
        "media.card-horizontal",
        "media.mediabox-horizontal",
        "media.text-centered",
        "media.text-image",
        "media.text-media"
      ]
    }
  }
}
