<!-- Generated by IcoMoon.io -->
<svg version="1.1" xmlns="http://www.w3.org/2000/svg" width="32" height="32" viewBox="0 0 32 32">
<title>facebook-messenger</title>
<path d="M16 4c-6.59 0-12 5.137-12 11.5 0 3.391 1.57 6.402 4 8.5v4.625l4.438-2.219c1.129 0.34 2.309 0.594 3.563 0.594 6.59 0 12-5.137 12-11.5s-5.41-11.5-12-11.5zM16 6c5.559 0 10 4.266 10 9.5s-4.441 9.5-10 9.5c-1.195 0-2.336-0.227-3.406-0.594l-0.406-0.125-2.188 1.094v-2.25l-0.375-0.313c-2.219-1.75-3.625-4.371-3.625-7.313 0-5.234 4.441-9.5 10-9.5zM14.875 12.344l-6.031 6.375 5.406-3 2.875 3.094 5.969-6.469-5.281 2.969z"></path>
</svg>
