<!-- Generated by IcoMoon.io -->
<svg version="1.1" xmlns="http://www.w3.org/2000/svg" width="32" height="32" viewBox="0 0 32 32">
<title>long-arrow-alt-right</title>
<path d="M21.188 9.281l-1.406 1.438 4.281 4.281h-20.063v2h20.063l-4.281 4.281 1.406 1.438 6.719-6.719z"></path>
</svg>
