<!-- Generated by IcoMoon.io -->
<svg version="1.1" xmlns="http://www.w3.org/2000/svg" width="32" height="32" viewBox="0 0 32 32">
<title>times</title>
<path d="M7.219 5.781l-1.438 1.438 8.781 8.781-8.781 8.781 1.438 1.438 8.781-8.781 8.781 8.781 1.438-1.438-8.781-8.781 8.781-8.781-1.438-1.438-8.781 8.781z"></path>
</svg>
