<!-- Generated by IcoMoon.io -->
<svg version="1.1" xmlns="http://www.w3.org/2000/svg" width="32" height="32" viewBox="0 0 32 32">
<title>long-arrow-alt-down</title>
<path d="M15 4v20.063l-4.281-4.281-1.438 1.406 6.719 6.719 6.719-6.719-1.438-1.406-4.281 4.281v-20.063z"></path>
</svg>
