<!-- Generated by IcoMoon.io -->
<svg version="1.1" xmlns="http://www.w3.org/2000/svg" width="32" height="32" viewBox="0 0 32 32">
<title>music</title>
<path d="M27 3.781l-1.188 0.25-16 3-0.813 0.125v13.406c-0.594-0.348-1.266-0.563-2-0.563-2.199 0-4 1.801-4 4s1.801 4 4 4c2.199 0 4-1.801 4-4v-11.188l14-2.625v7.375c-0.594-0.348-1.266-0.563-2-0.563-2.199 0-4 1.801-4 4s1.801 4 4 4c2.199 0 4-1.801 4-4zM25 6.188v2l-14 2.625v-2zM23 19c1.117 0 2 0.883 2 2s-0.883 2-2 2c-1.117 0-2-0.883-2-2s0.883-2 2-2zM7 22c1.117 0 2 0.883 2 2s-0.883 2-2 2c-1.117 0-2-0.883-2-2s0.883-2 2-2z"></path>
</svg>
