<!-- Generated by IcoMoon.io -->
<svg version="1.1" xmlns="http://www.w3.org/2000/svg" width="32" height="32" viewBox="0 0 32 32">
<title>upload</title>
<path d="M16 3.594l-0.719 0.688-7 7 1.438 1.438 5.281-5.281v16.563h2v-16.563l5.281 5.281 1.438-1.438-7-7zM7 26v2h18v-2z"></path>
</svg>
